{
  "stats": {
    "suites": 5,
    "tests": 11,
    "passes": 11,
    "pending": 0,
    "failures": 0,
    "start": "2024-05-12T17:53:27.983Z",
    "end": "2024-05-12T17:53:27.989Z",
    "duration": 6,
    "testsRegistered": 11,
    "passPercent": 100,
    "pendingPercent": 0,
    "other": 0,
    "hasOther": false,
    "skipped": 0,
    "hasSkipped": false
  },
  "results": [
    {
      "uuid": "579a5e89-3a07-4c65-be4b-cd41cdc8cc14",
      "title": "",
      "fullFile": "/Users/marynamala/Desktop/at-in-js/test/numbers-validator/isNumberEven.spec.js",
      "file": "/test/numbers-validator/isNumberEven.spec.js",
      "beforeHooks": [],
      "afterHooks": [],
      "tests": [],
      "suites": [
        {
          "uuid": "96549500-d075-4192-b238-5a36aabfa120",
          "title": "Numbers validator",
          "fullFile": "/Users/marynamala/Desktop/at-in-js/test/numbers-validator/isNumberEven.spec.js",
          "file": "/test/numbers-validator/isNumberEven.spec.js",
          "beforeHooks": [],
          "afterHooks": [],
          "tests": [],
          "suites": [
            {
              "uuid": "1dcaec17-f22f-46a8-a6ba-db8c876ba266",
              "title": "isNumberEven",
              "fullFile": "/Users/marynamala/Desktop/at-in-js/test/numbers-validator/isNumberEven.spec.js",
              "file": "/test/numbers-validator/isNumberEven.spec.js",
              "beforeHooks": [
                {
                  "title": "\"before each\" hook in \"isNumberEven\"",
                  "fullTitle": "Numbers validator isNumberEven \"before each\" hook in \"isNumberEven\"",
                  "timedOut": false,
                  "duration": 0,
                  "state": null,
                  "speed": null,
                  "pass": false,
                  "fail": false,
                  "pending": false,
                  "context": null,
                  "code": "validator = new NumbersValidator()",
                  "err": {},
                  "uuid": "95c069d5-d637-4eff-9d84-e5856beaf9e6",
                  "parentUUID": "1dcaec17-f22f-46a8-a6ba-db8c876ba266",
                  "isHook": true,
                  "skipped": false
                }
              ],
              "afterHooks": [
                {
                  "title": "\"after each\" hook in \"isNumberEven\"",
                  "fullTitle": "Numbers validator isNumberEven \"after each\" hook in \"isNumberEven\"",
                  "timedOut": false,
                  "duration": 0,
                  "state": null,
                  "speed": null,
                  "pass": false,
                  "fail": false,
                  "pending": false,
                  "context": null,
                  "code": "validator = null",
                  "err": {},
                  "uuid": "7284d2ce-661b-40ec-84a8-c75b7c6581c8",
                  "parentUUID": "1dcaec17-f22f-46a8-a6ba-db8c876ba266",
                  "isHook": true,
                  "skipped": false
                }
              ],
              "tests": [
                {
                  "title": "should return true if number is even",
                  "fullTitle": "Numbers validator isNumberEven should return true if number is even",
                  "timedOut": false,
                  "duration": 0,
                  "state": "passed",
                  "speed": "fast",
                  "pass": true,
                  "fail": false,
                  "pending": false,
                  "context": null,
                  "code": "expect(validator.isNumberEven(4)).to.be.equal(true)",
                  "err": {},
                  "uuid": "32e22c91-f9f9-4e33-9132-832be3f24339",
                  "parentUUID": "1dcaec17-f22f-46a8-a6ba-db8c876ba266",
                  "isHook": false,
                  "skipped": false
                },
                {
                  "title": "should throw an error when provided a string",
                  "fullTitle": "Numbers validator isNumberEven should throw an error when provided a string",
                  "timedOut": false,
                  "duration": 0,
                  "state": "passed",
                  "speed": "fast",
                  "pass": true,
                  "fail": false,
                  "pending": false,
                  "context": null,
                  "code": "expect(() => validator.isNumberEven('4')).to.throw('[4] is not of type \"Number\" it is of type \"string\"')",
                  "err": {},
                  "uuid": "e3839b94-6965-4d09-8e3e-088f3fbc06ce",
                  "parentUUID": "1dcaec17-f22f-46a8-a6ba-db8c876ba266",
                  "isHook": false,
                  "skipped": false
                }
              ],
              "suites": [],
              "passes": [
                "32e22c91-f9f9-4e33-9132-832be3f24339",
                "e3839b94-6965-4d09-8e3e-088f3fbc06ce"
              ],
              "failures": [],
              "pending": [],
              "skipped": [],
              "duration": 0,
              "root": false,
              "rootEmpty": false,
              "_timeout": 2000
            },
            {
              "uuid": "3e0d453d-8427-4c04-a020-c01f3d287904",
              "title": "getEvenNumbersFromArray",
              "fullFile": "/Users/marynamala/Desktop/at-in-js/test/numbers-validator/isNumberEven.spec.js",
              "file": "/test/numbers-validator/isNumberEven.spec.js",
              "beforeHooks": [
                {
                  "title": "\"before each\" hook in \"getEvenNumbersFromArray\"",
                  "fullTitle": "Numbers validator getEvenNumbersFromArray \"before each\" hook in \"getEvenNumbersFromArray\"",
                  "timedOut": false,
                  "duration": 0,
                  "state": null,
                  "speed": null,
                  "pass": false,
                  "fail": false,
                  "pending": false,
                  "context": null,
                  "code": "validator = new NumbersValidator();",
                  "err": {},
                  "uuid": "b3a368f9-bfae-44bf-ae82-a70dac053648",
                  "parentUUID": "3e0d453d-8427-4c04-a020-c01f3d287904",
                  "isHook": true,
                  "skipped": false
                }
              ],
              "afterHooks": [
                {
                  "title": "\"after each\" hook in \"getEvenNumbersFromArray\"",
                  "fullTitle": "Numbers validator getEvenNumbersFromArray \"after each\" hook in \"getEvenNumbersFromArray\"",
                  "timedOut": false,
                  "duration": 0,
                  "state": null,
                  "speed": null,
                  "pass": false,
                  "fail": false,
                  "pending": false,
                  "context": null,
                  "code": "validator = null;",
                  "err": {},
                  "uuid": "da22e911-29a6-4bd0-ab6b-d0952b913839",
                  "parentUUID": "3e0d453d-8427-4c04-a020-c01f3d287904",
                  "isHook": true,
                  "skipped": false
                }
              ],
              "tests": [
                {
                  "title": "should return an array of even numbers",
                  "fullTitle": "Numbers validator getEvenNumbersFromArray should return an array of even numbers",
                  "timedOut": false,
                  "duration": 1,
                  "state": "passed",
                  "speed": "fast",
                  "pass": true,
                  "fail": false,
                  "pending": false,
                  "context": null,
                  "code": "const inputArray = [1, 2, 3, 4, 5, 6];\nconst expectedResult = [2, 4, 6];\nexpect(validator.getEvenNumbersFromArray(inputArray)).to.deep.equal(expectedResult);",
                  "err": {},
                  "uuid": "dff2aaaa-8649-4aa9-bdd9-d29265fdcc14",
                  "parentUUID": "3e0d453d-8427-4c04-a020-c01f3d287904",
                  "isHook": false,
                  "skipped": false
                },
                {
                  "title": "should throw an error when provided with a non-array",
                  "fullTitle": "Numbers validator getEvenNumbersFromArray should throw an error when provided with a non-array",
                  "timedOut": false,
                  "duration": 0,
                  "state": "passed",
                  "speed": "fast",
                  "pass": true,
                  "fail": false,
                  "pending": false,
                  "context": null,
                  "code": "expect(() => validator.getEvenNumbersFromArray('123')).to.throw('[123] is not an array of \"Numbers\"');",
                  "err": {},
                  "uuid": "695b73b0-7718-49a0-863f-dcac1ba7053f",
                  "parentUUID": "3e0d453d-8427-4c04-a020-c01f3d287904",
                  "isHook": false,
                  "skipped": false
                },
                {
                  "title": "should throw an error when provided with an array containing non-numbers",
                  "fullTitle": "Numbers validator getEvenNumbersFromArray should throw an error when provided with an array containing non-numbers",
                  "timedOut": false,
                  "duration": 1,
                  "state": "passed",
                  "speed": "fast",
                  "pass": true,
                  "fail": false,
                  "pending": false,
                  "context": null,
                  "code": "const inputArray = [1, '2', 3];\nexpect(() => validator.getEvenNumbersFromArray(inputArray)).to.throw(`[${inputArray}] is not an array of \"Numbers\"`);",
                  "err": {},
                  "uuid": "1d3eed7d-132e-4be0-8626-fdb65f14cb41",
                  "parentUUID": "3e0d453d-8427-4c04-a020-c01f3d287904",
                  "isHook": false,
                  "skipped": false
                }
              ],
              "suites": [],
              "passes": [
                "dff2aaaa-8649-4aa9-bdd9-d29265fdcc14",
                "695b73b0-7718-49a0-863f-dcac1ba7053f",
                "1d3eed7d-132e-4be0-8626-fdb65f14cb41"
              ],
              "failures": [],
              "pending": [],
              "skipped": [],
              "duration": 2,
              "root": false,
              "rootEmpty": false,
              "_timeout": 2000
            },
            {
              "uuid": "16050ff8-f8ee-4fd5-9d68-843ec5376337",
              "title": "isAllNumbers",
              "fullFile": "/Users/marynamala/Desktop/at-in-js/test/numbers-validator/isNumberEven.spec.js",
              "file": "/test/numbers-validator/isNumberEven.spec.js",
              "beforeHooks": [
                {
                  "title": "\"before each\" hook in \"isAllNumbers\"",
                  "fullTitle": "Numbers validator isAllNumbers \"before each\" hook in \"isAllNumbers\"",
                  "timedOut": false,
                  "duration": 0,
                  "state": null,
                  "speed": null,
                  "pass": false,
                  "fail": false,
                  "pending": false,
                  "context": null,
                  "code": "validator = new NumbersValidator();",
                  "err": {},
                  "uuid": "df84db0a-1e3f-4ef2-9253-65da4180c9bc",
                  "parentUUID": "16050ff8-f8ee-4fd5-9d68-843ec5376337",
                  "isHook": true,
                  "skipped": false
                }
              ],
              "afterHooks": [
                {
                  "title": "\"after each\" hook in \"isAllNumbers\"",
                  "fullTitle": "Numbers validator isAllNumbers \"after each\" hook in \"isAllNumbers\"",
                  "timedOut": false,
                  "duration": 0,
                  "state": null,
                  "speed": null,
                  "pass": false,
                  "fail": false,
                  "pending": false,
                  "context": null,
                  "code": "validator = null;",
                  "err": {},
                  "uuid": "7899a03c-d57b-497d-8d9a-43a62e8f35b0",
                  "parentUUID": "16050ff8-f8ee-4fd5-9d68-843ec5376337",
                  "isHook": true,
                  "skipped": false
                }
              ],
              "tests": [
                {
                  "title": "should return true if all elements in the array are numbers",
                  "fullTitle": "Numbers validator isAllNumbers should return true if all elements in the array are numbers",
                  "timedOut": false,
                  "duration": 0,
                  "state": "passed",
                  "speed": "fast",
                  "pass": true,
                  "fail": false,
                  "pending": false,
                  "context": null,
                  "code": "const inputArray = [1, 2, 3];\nexpect(validator.isAllNumbers(inputArray)).to.be.true;",
                  "err": {},
                  "uuid": "2ef9bafb-259b-46aa-8b50-348e649818e5",
                  "parentUUID": "16050ff8-f8ee-4fd5-9d68-843ec5376337",
                  "isHook": false,
                  "skipped": false
                },
                {
                  "title": "should return false if the array contains a non-number",
                  "fullTitle": "Numbers validator isAllNumbers should return false if the array contains a non-number",
                  "timedOut": false,
                  "duration": 0,
                  "state": "passed",
                  "speed": "fast",
                  "pass": true,
                  "fail": false,
                  "pending": false,
                  "context": null,
                  "code": "const inputArray = [1, '2', 3];\nexpect(validator.isAllNumbers(inputArray)).to.be.false;",
                  "err": {},
                  "uuid": "85e8e351-fc91-4e4c-9b1a-8192911d9abe",
                  "parentUUID": "16050ff8-f8ee-4fd5-9d68-843ec5376337",
                  "isHook": false,
                  "skipped": false
                },
                {
                  "title": "should throw an error when provided with a non-array",
                  "fullTitle": "Numbers validator isAllNumbers should throw an error when provided with a non-array",
                  "timedOut": false,
                  "duration": 0,
                  "state": "passed",
                  "speed": "fast",
                  "pass": true,
                  "fail": false,
                  "pending": false,
                  "context": null,
                  "code": "expect(() => validator.isAllNumbers('123')).to.throw('[123] is not an array');",
                  "err": {},
                  "uuid": "0cf1ab1a-b126-4e90-bf68-55d2a4fe39ab",
                  "parentUUID": "16050ff8-f8ee-4fd5-9d68-843ec5376337",
                  "isHook": false,
                  "skipped": false
                }
              ],
              "suites": [],
              "passes": [
                "2ef9bafb-259b-46aa-8b50-348e649818e5",
                "85e8e351-fc91-4e4c-9b1a-8192911d9abe",
                "0cf1ab1a-b126-4e90-bf68-55d2a4fe39ab"
              ],
              "failures": [],
              "pending": [],
              "skipped": [],
              "duration": 0,
              "root": false,
              "rootEmpty": false,
              "_timeout": 2000
            },
            {
              "uuid": "163b255b-ac55-43f1-9a56-e670e1a8c200",
              "title": "isInteger",
              "fullFile": "/Users/marynamala/Desktop/at-in-js/test/numbers-validator/isNumberEven.spec.js",
              "file": "/test/numbers-validator/isNumberEven.spec.js",
              "beforeHooks": [
                {
                  "title": "\"before each\" hook in \"isInteger\"",
                  "fullTitle": "Numbers validator isInteger \"before each\" hook in \"isInteger\"",
                  "timedOut": false,
                  "duration": 0,
                  "state": null,
                  "speed": null,
                  "pass": false,
                  "fail": false,
                  "pending": false,
                  "context": null,
                  "code": "validator = new NumbersValidator();",
                  "err": {},
                  "uuid": "5cbc74b6-2287-40a3-8ee8-17079fd951ee",
                  "parentUUID": "163b255b-ac55-43f1-9a56-e670e1a8c200",
                  "isHook": true,
                  "skipped": false
                }
              ],
              "afterHooks": [
                {
                  "title": "\"after each\" hook in \"isInteger\"",
                  "fullTitle": "Numbers validator isInteger \"after each\" hook in \"isInteger\"",
                  "timedOut": false,
                  "duration": 0,
                  "state": null,
                  "speed": null,
                  "pass": false,
                  "fail": false,
                  "pending": false,
                  "context": null,
                  "code": "validator = null;",
                  "err": {},
                  "uuid": "f3f4052b-8499-4675-9025-6ca0d64040c7",
                  "parentUUID": "163b255b-ac55-43f1-9a56-e670e1a8c200",
                  "isHook": true,
                  "skipped": false
                }
              ],
              "tests": [
                {
                  "title": "should return true if the value is an integer",
                  "fullTitle": "Numbers validator isInteger should return true if the value is an integer",
                  "timedOut": false,
                  "duration": 0,
                  "state": "passed",
                  "speed": "fast",
                  "pass": true,
                  "fail": false,
                  "pending": false,
                  "context": null,
                  "code": "expect (validator.isInteger(4)).to.be.true;",
                  "err": {},
                  "uuid": "11e9f2a2-031d-4990-8be2-766799781d33",
                  "parentUUID": "163b255b-ac55-43f1-9a56-e670e1a8c200",
                  "isHook": false,
                  "skipped": false
                },
                {
                  "title": "should return false if the value is not an integer",
                  "fullTitle": "Numbers validator isInteger should return false if the value is not an integer",
                  "timedOut": false,
                  "duration": 0,
                  "state": "passed",
                  "speed": "fast",
                  "pass": true,
                  "fail": false,
                  "pending": false,
                  "context": null,
                  "code": "expect (validator.isInteger(4.5)).to.be.false;",
                  "err": {},
                  "uuid": "055ab317-a5b1-43dc-ba66-b74dd6a26820",
                  "parentUUID": "163b255b-ac55-43f1-9a56-e670e1a8c200",
                  "isHook": false,
                  "skipped": false
                },
                {
                  "title": "it should throw an error when provided with non-number",
                  "fullTitle": "Numbers validator isInteger it should throw an error when provided with non-number",
                  "timedOut": false,
                  "duration": 0,
                  "state": "passed",
                  "speed": "fast",
                  "pass": true,
                  "fail": false,
                  "pending": false,
                  "context": null,
                  "code": "expect(() => validator.isInteger('4')).to.throw('[4] is not a number');",
                  "err": {},
                  "uuid": "3224540c-584e-4853-b0fb-fb5bd3e9079f",
                  "parentUUID": "163b255b-ac55-43f1-9a56-e670e1a8c200",
                  "isHook": false,
                  "skipped": false
                }
              ],
              "suites": [],
              "passes": [
                "11e9f2a2-031d-4990-8be2-766799781d33",
                "055ab317-a5b1-43dc-ba66-b74dd6a26820",
                "3224540c-584e-4853-b0fb-fb5bd3e9079f"
              ],
              "failures": [],
              "pending": [],
              "skipped": [],
              "duration": 0,
              "root": false,
              "rootEmpty": false,
              "_timeout": 2000
            }
          ],
          "passes": [],
          "failures": [],
          "pending": [],
          "skipped": [],
          "duration": 0,
          "root": false,
          "rootEmpty": false,
          "_timeout": 2000
        }
      ],
      "passes": [],
      "failures": [],
      "pending": [],
      "skipped": [],
      "duration": 0,
      "root": true,
      "rootEmpty": true,
      "_timeout": 2000
    }
  ],
  "meta": {
    "mocha": {
      "version": "10.4.0"
    },
    "mochawesome": {
      "options": {
        "quiet": false,
        "reportFilename": "mochawesome",
        "saveHtml": true,
        "saveJson": true,
        "consoleReporter": "spec",
        "useInlineDiffs": false,
        "code": true
      },
      "version": "7.1.3"
    },
    "marge": {
      "options": null,
      "version": "6.2.0"
    }
  }
}